RCA_using_FA_and_HA/RCA4_loop_sim.vcd
$date
	Sat Jul 18 15:13:13 2026
$end
$version
	Icarus Verilog
$end
$timescale
	1ps
$end
$scope module RCA4_tb $end
$var wire 4 ! s [3:0] $end
$var wire 1 " cout $end
$var reg 4 # a [3:0] $end
$var reg 4 $ b [3:0] $end
$var reg 1 % c0 $end
$var integer 32 & i [31:0] $end
$var integer 32 ' j [31:0] $end
$scope module dut $end
$var wire 4 ( a [3:0] $end
$var wire 4 ) b [3:0] $end
$var wire 1 % c0 $end
$var wire 4 * s [3:0] $end
$var wire 1 " cout $end
$var wire 1 + c3 $end
$var wire 1 , c2 $end
$var wire 1 - c1 $end
$scope module fa0 $end
$var wire 1 - cout $end
$var wire 1 . x $end
$var wire 1 / y $end
$var wire 1 % z $end
$var wire 1 0 s1 $end
$var wire 1 1 s $end
$var wire 1 2 c2 $end
$var wire 1 3 c1 $end
$scope module ha1 $end
$var wire 1 3 c $end
$var wire 1 0 s $end
$var wire 1 . x $end
$var wire 1 / y $end
$upscope $end
$scope module ha2 $end
$var wire 1 2 c $end
$var wire 1 1 s $end
$var wire 1 0 x $end
$var wire 1 % y $end
$upscope $end
$upscope $end
$scope module fa1 $end
$var wire 1 , cout $end
$var wire 1 4 x $end
$var wire 1 5 y $end
$var wire 1 - z $end
$var wire 1 6 s1 $end
$var wire 1 7 s $end
$var wire 1 8 c2 $end
$var wire 1 9 c1 $end
$scope module ha1 $end
$var wire 1 9 c $end
$var wire 1 6 s $end
$var wire 1 4 x $end
$var wire 1 5 y $end
$upscope $end
$scope module ha2 $end
$var wire 1 8 c $end
$var wire 1 7 s $end
$var wire 1 6 x $end
$var wire 1 - y $end
$upscope $end
$upscope $end
$scope module fa2 $end
$var wire 1 + cout $end
$var wire 1 : x $end
$var wire 1 ; y $end
$var wire 1 , z $end
$var wire 1 < s1 $end
$var wire 1 = s $end
$var wire 1 > c2 $end
$var wire 1 ? c1 $end
$scope module ha1 $end
$var wire 1 ? c $end
$var wire 1 < s $end
$var wire 1 : x $end
$var wire 1 ; y $end
$upscope $end
$scope module ha2 $end
$var wire 1 > c $end
$var wire 1 = s $end
$var wire 1 < x $end
$var wire 1 , y $end
$upscope $end
$upscope $end
$scope module fa3 $end
$var wire 1 " cout $end
$var wire 1 @ x $end
$var wire 1 A y $end
$var wire 1 + z $end
$var wire 1 B s1 $end
$var wire 1 C s $end
$var wire 1 D c2 $end
$var wire 1 E c1 $end
$scope module ha1 $end
$var wire 1 E c $end
$var wire 1 B s $end
$var wire 1 @ x $end
$var wire 1 A y $end
$upscope $end
$scope module ha2 $end
$var wire 1 D c $end
$var wire 1 C s $end
$var wire 1 B x $end
$var wire 1 + y $end
$upscope $end
$upscope $end
$upscope $end
$upscope $end
$enddefinitions $end
$comment Show the parameter values. $end
$dumpall
$end
#0
$dumpvars
0E
0D
0C
0B
0A
0@
0?
0>
0=
0<
0;
0:
09
08
07
06
05
04
03
02
01
00
0/
0.
0-
0,
0+
b0 *
b0 )
b0 (
b0 '
b0 &
0%
b0 $
b0 #
0"
b0 !
$end
#5000
b1 !
b1 *
11
10
1/
b1 $
b1 )
b1 '
#10000
01
b10 !
b10 *
17
00
16
0/
15
b10 $
b10 )
b10 '
#15000
b11 !
b11 *
11
10
1/
b11 $
b11 )
b11 '
#20000
01
07
b100 !
b100 *
1=
00
06
1<
0/
05
1;
b100 $
b100 )
b100 '
#25000
b101 !
b101 *
11
10
1/
b101 $
b101 )
b101 '
#30000
01
b110 !
b110 *
17
00
16
0/
15
b110 $
b110 )
b110 '
#35000
b111 !
b111 *
11
10
1/
b111 $
b111 )
b111 '
#40000
01
07
0=
b1000 !
b1000 *
1C
00
06
0<
1B
0/
05
0;
1A
b1000 $
b1000 )
b1000 '
#45000
b1001 !
b1001 *
11
10
1/
b1001 $
b1001 )
b1001 '
#50000
01
b1010 !
b1010 *
17
00
16
0/
15
b1010 $
b1010 )
b1010 '
#55000
b1011 !
b1011 *
11
10
1/
b1011 $
b1011 )
b1011 '
#60000
01
07
b1100 !
b1100 *
1=
00
06
1<
0/
05
1;
b1100 $
b1100 )
b1100 '
#65000
b1101 !
b1101 *
11
10
1/
b1101 $
b1101 )
b1101 '
#70000
01
b1110 !
b1110 *
17
00
16
0/
15
b1110 $
b1110 )
b1110 '
#75000
b1111 !
b1111 *
11
10
1/
b1111 $
b1111 )
b1111 '
#80000
07
0=
b1 !
b1 *
0C
06
0<
0B
0/
05
0;
0A
1.
b0 $
b0 )
b1 #
b1 (
b1 &
b0 '
#85000
17
b10 !
b10 *
01
1-
00
13
1/
b1 $
b1 )
b1 '
#90000
0=
0,
11
0-
b11 !
b11 *
17
08
10
03
16
0/
15
b10 $
b10 )
b10 '
#95000
1=
1,
07
18
b100 !
b100 *
01
1-
00
13
1/
b11 $
b11 )
b11 '
#100000
0C
0,
0+
11
0-
07
08
b101 !
b101 *
1=
0>
10
03
06
1<
0/
05
1;
b100 $
b100 )
b100 '
#105000
17
b110 !
b110 *
01
1-
00
13
1/
b101 $
b101 )
b101 '
#110000
0C
0+
1=
0>
0,
11
0-
b111 !
b111 *
17
08
10
03
16
0/
15
b110 $
b110 )
b110 '
#115000
1C
1+
0=
1>
1,
07
18
b1000 !
b1000 *
01
1-
00
13
1/
b111 $
b111 )
b111 '
#120000
0,
0+
0"
11
0-
07
08
0=
0>
b1001 !
b1001 *
1C
0D
10
03
06
0<
1B
0/
05
0;
1A
b1000 $
b1000 )
b1000 '
#125000
17
b1010 !
b1010 *
01
1-
00
13
1/
b1001 $
b1001 )
b1001 '
#130000
0=
0,
11
0-
b1011 !
b1011 *
17
08
10
03
16
0/
15
b1010 $
b1010 )
b1010 '
#135000
1=
1,
07
18
b1100 !
b1100 *
01
1-
00
13
1/
b1011 $
b1011 )
b1011 '
#140000
0"
1C
0D
0,
0+
11
0-
07
08
b1101 !
b1101 *
1=
0>
10
03
06
1<
0/
05
1;
b1100 $
b1100 )
b1100 '
#145000
17
b1110 !
b1110 *
01
1-
00
13
1/
b1101 $
b1101 )
b1101 '
#150000
0"
1C
0D
0+
1=
0>
0,
11
0-
b1111 !
b1111 *
17
08
10
03
16
0/
15
b1110 $
b1110 )
b1110 '
#155000
1"
0C
1D
1+
0=
1>
1,
07
18
b0 !
b0 *
01
1-
00
13
1/
b1111 $
b1111 )
b1111 '
#160000
0,
0+
0"
17
08
0=
0>
b10 !
b10 *
0C
0D
0-
0<
0B
03
0/
05
0;
0A
0.
14
b0 $
b0 )
b10 #
b10 (
b10 &
b0 '
#165000
b11 !
b11 *
11
10
1/
b1 $
b1 )
b1 '
#170000
1=
01
b100 !
b100 *
07
1,
00
06
19
0/
15
b10 $
b10 )
b10 '
#175000
b101 !
b101 *
11
10
1/
b11 $
b11 )
b11 '
#180000
0C
0+
01
17
0,
b110 !
b110 *
1=
0>
00
16
09
1<
0/
05
1;
b100 $
b100 )
b100 '
#185000
b111 !
b111 *
11
10
1/
b101 $
b101 )
b101 '
#190000
1C
1+
0=
1>
01
b1000 !
b1000 *
07
1,
00
06
19
0/
15
b110 $
b110 )
b110 '
#195000
b1001 !
b1001 *
11
10
1/
b111 $
b111 )
b111 '
#200000
0+
0"
01
17
0,
0=
0>
b1010 !
b1010 *
1C
0D
00
16
09
0<
1B
0/
05
0;
1A
b1000 $
b1000 )
b1000 '
#205000
b1011 !
b1011 *
11
10
1/
b1001 $
b1001 )
b1001 '
#210000
1=
01
b1100 !
b1100 *
07
1,
00
06
19
0/
15
b1010 $
b1010 )
b1010 '
#215000
b1101 !
b1101 *
11
10
1/
b1011 $
b1011 )
b1011 '
#220000
0"
1C
0D
0+
01
17
0,
b1110 !
b1110 *
1=
0>
00
16
09
1<
0/
05
1;
b1100 $
b1100 )
b1100 '
#225000
b1111 !
b1111 *
11
10
1/
b1101 $
b1101 )
b1101 '
#230000
1"
0C
1D
1+
0=
1>
01
b0 !
b0 *
07
1,
00
06
19
0/
15
b1110 $
b1110 )
b1110 '
#235000
b1 !
b1 *
11
10
1/
b1111 $
b1111 )
b1111 '
#240000
0+
0"
17
0,
0=
0>
b11 !
b11 *
0C
0D
16
09
0<
0B
0/
05
0;
0A
1.
b0 $
b0 )
b11 #
b11 (
b11 &
b0 '
#245000
1=
1,
07
18
b100 !
b100 *
01
1-
00
13
1/
b1 $
b1 )
b1 '
#250000
11
0-
b101 !
b101 *
07
08
10
03
06
19
0/
15
b10 $
b10 )
b10 '
#255000
17
b110 !
b110 *
01
1-
00
13
1/
b11 $
b11 )
b11 '
#260000
0C
0+
11
0-
17
08
0,
b111 !
b111 *
1=
0>
10
03
16
09
1<
0/
05
1;
b100 $
b100 )
b100 '
#265000
1C
1+
0=
1>
1,
07
18
b1000 !
b1000 *
01
1-
00
13
1/
b101 $
b101 )
b101 '
#270000
11
0-
b1001 !
b1001 *
07
08
10
03
06
19
0/
15
b110 $
b110 )
b110 '
#275000
17
b1010 !
b1010 *
01
1-
00
13
1/
b111 $
b111 )
b111 '
#280000
0+
0"
11
0-
17
08
0,
0=
0>
b1011 !
b1011 *
1C
0D
10
03
16
09
0<
1B
0/
05
0;
1A
b1000 $
b1000 )
b1000 '
#285000
1=
1,
07
18
b1100 !
b1100 *
01
1-
00
13
1/
b1001 $
b1001 )
b1001 '
#290000
11
0-
b1101 !
b1101 *
07
08
10
03
06
19
0/
15
b1010 $
b1010 )
b1010 '
#295000
17
b1110 !
b1110 *
01
1-
00
13
1/
b1011 $
b1011 )
b1011 '
#300000
0"
1C
0D
0+
11
0-
17
08
0,
b1111 !
b1111 *
1=
0>
10
03
16
09
1<
0/
05
1;
b1100 $
b1100 )
b1100 '
#305000
1"
0C
1D
1+
0=
1>
1,
07
18
b0 !
b0 *
01
1-
00
13
1/
b1101 $
b1101 )
b1101 '
#310000
11
0-
b1 !
b1 *
07
08
10
03
06
19
0/
15
b1110 $
b1110 )
b1110 '
#315000
17
b10 !
b10 *
01
1-
00
13
1/
b1111 $
b1111 )
b1111 '
#320000
0+
0"
07
1=
0>
b100 !
b100 *
0C
0D
0-
0,
0B
03
09
0/
05
0;
0A
0.
04
1:
b0 $
b0 )
b100 #
b100 (
b100 &
b0 '
#325000
b101 !
b101 *
11
10
1/
b1 $
b1 )
b1 '
#330000
01
b110 !
b110 *
17
00
16
0/
15
b10 $
b10 )
b10 '
#335000
b111 !
b111 *
11
10
1/
b11 $
b11 )
b11 '
#340000
1C
01
07
b1000 !
b1000 *
0=
1+
00
06
0<
1?
0/
05
1;
b100 $
b100 )
b100 '
#345000
b1001 !
b1001 *
11
10
1/
b101 $
b101 )
b101 '
#350000
01
b1010 !
b1010 *
17
00
16
0/
15
b110 $
b110 )
b110 '
#355000
b1011 !
b1011 *
11
10
1/
b111 $
b111 )
b111 '
#360000
0"
01
07
1=
0+
b1100 !
b1100 *
1C
0D
00
06
1<
0?
1B
0/
05
0;
1A
b1000 $
b1000 )
b1000 '
#365000
b1101 !
b1101 *
11
10
1/
b1001 $
b1001 )
b1001 '
#370000
01
b1110 !
b1110 *
17
00
16
0/
15
b1010 $
b1010 )
b1010 '
#375000
b1111 !
b1111 *
11
10
1/
b1011 $
b1011 )
b1011 '
#380000
1"
0C
1D
01
07
b0 !
b0 *
0=
1+
00
06
0<
1?
0/
05
1;
b1100 $
b1100 )
b1100 '
#385000
b1 !
b1 *
11
10
1/
b1101 $
b1101 )
b1101 '
#390000
01
b10 !
b10 *
17
00
16
0/
15
b1110 $
b1110 )
b1110 '
#395000
b11 !
b11 *
11
10
1/
b1111 $
b1111 )
b1111 '
#400000
0"
07
1=
0+
b101 !
b101 *
0C
0D
06
1<
0?
0B
0/
05
0;
0A
1.
b0 $
b0 )
b101 #
b101 (
b101 &
b0 '
#405000
17
b110 !
b110 *
01
1-
00
13
1/
b1 $
b1 )
b1 '
#410000
0C
0+
1=
0>
0,
11
0-
b111 !
b111 *
17
08
10
03
16
0/
15
b10 $
b10 )
b10 '
#415000
1C
1+
0=
1>
1,
07
18
b1000 !
b1000 *
01
1-
00
13
1/
b11 $
b11 )
b11 '
#420000
0,
11
0-
07
08
b1001 !
b1001 *
0=
0>
10
03
06
0<
1?
0/
05
1;
b100 $
b100 )
b100 '
#425000
17
b1010 !
b1010 *
01
1-
00
13
1/
b101 $
b101 )
b101 '
#430000
0=
0,
11
0-
b1011 !
b1011 *
17
08
10
03
16
0/
15
b110 $
b110 )
b110 '
#435000
1=
1,
07
18
b1100 !
b1100 *
01
1-
00
13
1/
b111 $
b111 )
b111 '
#440000
0,
0"
11
0-
07
08
1=
0>
0+
b1101 !
b1101 *
1C
0D
10
03
06
1<
0?
1B
0/
05
0;
1A
b1000 $
b1000 )
b1000 '
#445000
17
b1110 !
b1110 *
01
1-
00
13
1/
b1001 $
b1001 )
b1001 '
#450000
0"
1C
0D
0+
1=
0>
0,
11
0-
b1111 !
b1111 *
17
08
10
03
16
0/
15
b1010 $
b1010 )
b1010 '
#455000
1"
0C
1D
1+
0=
1>
1,
07
18
b0 !
b0 *
01
1-
00
13
1/
b1011 $
b1011 )
b1011 '
#460000
0,
11
0-
07
08
b1 !
b1 *
0=
0>
10
03
06
0<
1?
0/
05
1;
b1100 $
b1100 )
b1100 '
#465000
17
b10 !
b10 *
01
1-
00
13
1/
b1101 $
b1101 )
b1101 '
#470000
0=
0,
11
0-
b11 !
b11 *
17
08
10
03
16
0/
15
b1110 $
b1110 )
b1110 '
#475000
1=
1,
07
18
b100 !
b100 *
01
1-
00
13
1/
b1111 $
b1111 )
b1111 '
#480000
0,
0"
17
08
1=
0>
0+
b110 !
b110 *
0C
0D
0-
1<
0?
0B
03
0/
05
0;
0A
0.
14
b0 $
b0 )
b110 #
b110 (
b110 &
b0 '
#485000
b111 !
b111 *
11
10
1/
b1 $
b1 )
b1 '
#490000
1C
1+
0=
1>
01
b1000 !
b1000 *
07
1,
00
06
19
0/
15
b10 $
b10 )
b10 '
#495000
b1001 !
b1001 *
11
10
1/
b11 $
b11 )
b11 '
#500000
01
17
0,
b1010 !
b1010 *
0=
0>
00
16
09
0<
1?
0/
05
1;
b100 $
b100 )
b100 '
#505000
b1011 !
b1011 *
11
10
1/
b101 $
b101 )
b101 '
#510000
1=
01
b1100 !
b1100 *
07
1,
00
06
19
0/
15
b110 $
b110 )
b110 '
#515000
b1101 !
b1101 *
11
10
1/
b111 $
b111 )
b111 '
#520000
0"
01
17
0,
1=
0>
0+
b1110 !
b1110 *
1C
0D
00
16
09
1<
0?
1B
0/
05
0;
1A
b1000 $
b1000 )
b1000 '
#525000
b1111 !
b1111 *
11
10
1/
b1001 $
b1001 )
b1001 '
#530000
1"
0C
1D
1+
0=
1>
01
b0 !
b0 *
07
1,
00
06
19
0/
15
b1010 $
b1010 )
b1010 '
#535000
b1 !
b1 *
11
10
1/
b1011 $
b1011 )
b1011 '
#540000
01
17
0,
b10 !
b10 *
0=
0>
00
16
09
0<
1?
0/
05
1;
b1100 $
b1100 )
b1100 '
#545000
b11 !
b11 *
11
10
1/
b1101 $
b1101 )
b1101 '
#550000
1=
01
b100 !
b100 *
07
1,
00
06
19
0/
15
b1110 $
b1110 )
b1110 '
#555000
b101 !
b101 *
11
10
1/
b1111 $
b1111 )
b1111 '
#560000
0"
17
0,
1=
0>
0+
b111 !
b111 *
0C
0D
16
09
1<
0?
0B
0/
05
0;
0A
1.
b0 $
b0 )
b111 #
b111 (
b111 &
b0 '
#565000
1C
1+
0=
1>
1,
07
18
b1000 !
b1000 *
01
1-
00
13
1/
b1 $
b1 )
b1 '
#570000
11
0-
b1001 !
b1001 *
07
08
10
03
06
19
0/
15
b10 $
b10 )
b10 '
#575000
17
b1010 !
b1010 *
01
1-
00
13
1/
b11 $
b11 )
b11 '
#580000
11
0-
17
08
0,
b1011 !
b1011 *
0=
0>
10
03
16
09
0<
1?
0/
05
1;
b100 $
b100 )
b100 '
#585000
1=
1,
07
18
b1100 !
b1100 *
01
1-
00
13
1/
b101 $
b101 )
b101 '
#590000
11
0-
b1101 !
b1101 *
07
08
10
03
06
19
0/
15
b110 $
b110 )
b110 '
#595000
17
b1110 !
b1110 *
01
1-
00
13
1/
b111 $
b111 )
b111 '
#600000
0"
11
0-
17
08
0,
1=
0>
0+
b1111 !
b1111 *
1C
0D
10
03
16
09
1<
0?
1B
0/
05
0;
1A
b1000 $
b1000 )
b1000 '
#605000
1"
0C
1D
1+
0=
1>
1,
07
18
b0 !
b0 *
01
1-
00
13
1/
b1001 $
b1001 )
b1001 '
#610000
11
0-
b1 !
b1 *
07
08
10
03
06
19
0/
15
b1010 $
b1010 )
b1010 '
#615000
17
b10 !
b10 *
01
1-
00
13
1/
b1011 $
b1011 )
b1011 '
#620000
11
0-
17
08
0,
b11 !
b11 *
0=
0>
10
03
16
09
0<
1?
0/
05
1;
b1100 $
b1100 )
b1100 '
#625000
1=
1,
07
18
b100 !
b100 *
01
1-
00
13
1/
b1101 $
b1101 )
b1101 '
#630000
11
0-
b101 !
b101 *
07
08
10
03
06
19
0/
15
b1110 $
b1110 )
b1110 '
#635000
17
b110 !
b110 *
01
1-
00
13
1/
b1111 $
b1111 )
b1111 '
#640000
0"
07
0=
b1000 !
b1000 *
1C
0D
0-
0,
0+
03
09
0?
0/
05
0;
0A
0.
04
0:
1@
b0 $
b0 )
b1000 #
b1000 (
b1000 &
b0 '
#645000
b1001 !
b1001 *
11
10
1/
b1 $
b1 )
b1 '
#650000
01
b1010 !
b1010 *
17
00
16
0/
15
b10 $
b10 )
b10 '
#655000
b1011 !
b1011 *
11
10
1/
b11 $
b11 )
b11 '
#660000
01
07
b1100 !
b1100 *
1=
00
06
1<
0/
05
1;
b100 $
b100 )
b100 '
#665000
b1101 !
b1101 *
11
10
1/
b101 $
b101 )
b101 '
#670000
01
b1110 !
b1110 *
17
00
16
0/
15
b110 $
b110 )
b110 '
#675000
b1111 !
b1111 *
11
10
1/
b111 $
b111 )
b111 '
#680000
01
07
0=
b0 !
b0 *
0C
1"
00
06
0<
0B
1E
0/
05
0;
1A
b1000 $
b1000 )
b1000 '
#685000
b1 !
b1 *
11
10
1/
b1001 $
b1001 )
b1001 '
#690000
01
b10 !
b10 *
17
00
16
0/
15
b1010 $
b1010 )
b1010 '
#695000
b11 !
b11 *
11
10
1/
b1011 $
b1011 )
b1011 '
#700000
01
07
b100 !
b100 *
1=
00
06
1<
0/
05
1;
b1100 $
b1100 )
b1100 '
#705000
b101 !
b101 *
11
10
1/
b1101 $
b1101 )
b1101 '
#710000
01
b110 !
b110 *
17
00
16
0/
15
b1110 $
b1110 )
b1110 '
#715000
b111 !
b111 *
11
10
1/
b1111 $
b1111 )
b1111 '
#720000
07
0=
b1001 !
b1001 *
1C
0"
06
0<
1B
0E
0/
05
0;
0A
1.
b0 $
b0 )
b1001 #
b1001 (
b1001 &
b0 '
#725000
17
b1010 !
b1010 *
01
1-
00
13
1/
b1 $
b1 )
b1 '
#730000
0=
0,
11
0-
b1011 !
b1011 *
17
08
10
03
16
0/
15
b10 $
b10 )
b10 '
#735000
1=
1,
07
18
b1100 !
b1100 *
01
1-
00
13
1/
b11 $
b11 )
b11 '
#740000
0"
1C
0D
0,
0+
11
0-
07
08
b1101 !
b1101 *
1=
0>
10
03
06
1<
0/
05
1;
b100 $
b100 )
b100 '
#745000
17
b1110 !
b1110 *
01
1-
00
13
1/
b101 $
b101 )
b101 '
#750000
0"
1C
0D
0+
1=
0>
0,
11
0-
b1111 !
b1111 *
17
08
10
03
16
0/
15
b110 $
b110 )
b110 '
#755000
1"
0C
1D
1+
0=
1>
1,
07
18
b0 !
b0 *
01
1-
00
13
1/
b111 $
b111 )
b111 '
#760000
0,
0+
11
0-
07
08
0=
0>
b1 !
b1 *
0C
0D
10
03
06
0<
0B
1E
0/
05
0;
1A
b1000 $
b1000 )
b1000 '
#765000
17
b10 !
b10 *
01
1-
00
13
1/
b1001 $
b1001 )
b1001 '
#770000
0=
0,
11
0-
b11 !
b11 *
17
08
10
03
16
0/
15
b1010 $
b1010 )
b1010 '
#775000
1=
1,
07
18
b100 !
b100 *
01
1-
00
13
1/
b1011 $
b1011 )
b1011 '
#780000
0C
0,
0+
11
0-
07
08
b101 !
b101 *
1=
0>
10
03
06
1<
0/
05
1;
b1100 $
b1100 )
b1100 '
#785000
17
b110 !
b110 *
01
1-
00
13
1/
b1101 $
b1101 )
b1101 '
#790000
0C
0+
1=
0>
0,
11
0-
b111 !
b111 *
17
08
10
03
16
0/
15
b1110 $
b1110 )
b1110 '
#795000
1C
1+
0=
1>
1,
07
18
b1000 !
b1000 *
01
1-
00
13
1/
b1111 $
b1111 )
b1111 '
#800000
0,
0+
17
08
0=
0>
b1010 !
b1010 *
1C
0D
0"
0-
0<
1B
0E
03
0/
05
0;
0A
0.
14
b0 $
b0 )
b1010 #
b1010 (
b1010 &
b0 '
#805000
b1011 !
b1011 *
11
10
1/
b1 $
b1 )
b1 '
#810000
1=
01
b1100 !
b1100 *
07
1,
00
06
19
0/
15
b10 $
b10 )
b10 '
#815000
b1101 !
b1101 *
11
10
1/
b11 $
b11 )
b11 '
#820000
0"
1C
0D
0+
01
17
0,
b1110 !
b1110 *
1=
0>
00
16
09
1<
0/
05
1;
b100 $
b100 )
b100 '
#825000
b1111 !
b1111 *
11
10
1/
b101 $
b101 )
b101 '
#830000
1"
0C
1D
1+
0=
1>
01
b0 !
b0 *
07
1,
00
06
19
0/
15
b110 $
b110 )
b110 '
#835000
b1 !
b1 *
11
10
1/
b111 $
b111 )
b111 '
#840000
0+
01
17
0,
0=
0>
b10 !
b10 *
0C
0D
00
16
09
0<
0B
1E
0/
05
0;
1A
b1000 $
b1000 )
b1000 '
#845000
b11 !
b11 *
11
10
1/
b1001 $
b1001 )
b1001 '
#850000
1=
01
b100 !
b100 *
07
1,
00
06
19
0/
15
b1010 $
b1010 )
b1010 '
#855000
b101 !
b101 *
11
10
1/
b1011 $
b1011 )
b1011 '
#860000
0C
0+
01
17
0,
b110 !
b110 *
1=
0>
00
16
09
1<
0/
05
1;
b1100 $
b1100 )
b1100 '
#865000
b111 !
b111 *
11
10
1/
b1101 $
b1101 )
b1101 '
#870000
1C
1+
0=
1>
01
b1000 !
b1000 *
07
1,
00
06
19
0/
15
b1110 $
b1110 )
b1110 '
#875000
b1001 !
b1001 *
11
10
1/
b1111 $
b1111 )
b1111 '
#880000
0+
17
0,
0=
0>
b1011 !
b1011 *
1C
0D
0"
16
09
0<
1B
0E
0/
05
0;
0A
1.
b0 $
b0 )
b1011 #
b1011 (
b1011 &
b0 '
#885000
1=
1,
07
18
b1100 !
b1100 *
01
1-
00
13
1/
b1 $
b1 )
b1 '
#890000
11
0-
b1101 !
b1101 *
07
08
10
03
06
19
0/
15
b10 $
b10 )
b10 '
#895000
17
b1110 !
b1110 *
01
1-
00
13
1/
b11 $
b11 )
b11 '
#900000
0"
1C
0D
0+
11
0-
17
08
0,
b1111 !
b1111 *
1=
0>
10
03
16
09
1<
0/
05
1;
b100 $
b100 )
b100 '
#905000
1"
0C
1D
1+
0=
1>
1,
07
18
b0 !
b0 *
01
1-
00
13
1/
b101 $
b101 )
b101 '
#910000
11
0-
b1 !
b1 *
07
08
10
03
06
19
0/
15
b110 $
b110 )
b110 '
#915000
17
b10 !
b10 *
01
1-
00
13
1/
b111 $
b111 )
b111 '
#920000
0+
11
0-
17
08
0,
0=
0>
b11 !
b11 *
0C
0D
10
03
16
09
0<
0B
1E
0/
05
0;
1A
b1000 $
b1000 )
b1000 '
#925000
1=
1,
07
18
b100 !
b100 *
01
1-
00
13
1/
b1001 $
b1001 )
b1001 '
#930000
11
0-
b101 !
b101 *
07
08
10
03
06
19
0/
15
b1010 $
b1010 )
b1010 '
#935000
17
b110 !
b110 *
01
1-
00
13
1/
b1011 $
b1011 )
b1011 '
#940000
0C
0+
11
0-
17
08
0,
b111 !
b111 *
1=
0>
10
03
16
09
1<
0/
05
1;
b1100 $
b1100 )
b1100 '
#945000
1C
1+
0=
1>
1,
07
18
b1000 !
b1000 *
01
1-
00
13
1/
b1101 $
b1101 )
b1101 '
#950000
11
0-
b1001 !
b1001 *
07
08
10
03
06
19
0/
15
b1110 $
b1110 )
b1110 '
#955000
17
b1010 !
b1010 *
01
1-
00
13
1/
b1111 $
b1111 )
b1111 '
#960000
0+
07
1=
0>
b1100 !
b1100 *
1C
0D
0"
0-
0,
1B
0E
03
09
0/
05
0;
0A
0.
04
1:
b0 $
b0 )
b1100 #
b1100 (
b1100 &
b0 '
#965000
b1101 !
b1101 *
11
10
1/
b1 $
b1 )
b1 '
#970000
01
b1110 !
b1110 *
17
00
16
0/
15
b10 $
b10 )
b10 '
#975000
b1111 !
b1111 *
11
10
1/
b11 $
b11 )
b11 '
#980000
1"
0C
1D
01
07
b0 !
b0 *
0=
1+
00
06
0<
1?
0/
05
1;
b100 $
b100 )
b100 '
#985000
b1 !
b1 *
11
10
1/
b101 $
b101 )
b101 '
#990000
01
b10 !
b10 *
17
00
16
0/
15
b110 $
b110 )
b110 '
#995000
b11 !
b11 *
11
10
1/
b111 $
b111 )
b111 '
#1000000
01
07
1=
0+
b100 !
b100 *
0C
0D
00
06
1<
0?
0B
1E
0/
05
0;
1A
b1000 $
b1000 )
b1000 '
#1005000
b101 !
b101 *
11
10
1/
b1001 $
b1001 )
b1001 '
#1010000
01
b110 !
b110 *
17
00
16
0/
15
b1010 $
b1010 )
b1010 '
#1015000
b111 !
b111 *
11
10
1/
b1011 $
b1011 )
b1011 '
#1020000
1C
01
07
b1000 !
b1000 *
0=
1+
00
06
0<
1?
0/
05
1;
b1100 $
b1100 )
b1100 '
#1025000
b1001 !
b1001 *
11
10
1/
b1101 $
b1101 )
b1101 '
#1030000
01
b1010 !
b1010 *
17
00
16
0/
15
b1110 $
b1110 )
b1110 '
#1035000
b1011 !
b1011 *
11
10
1/
b1111 $
b1111 )
b1111 '
#1040000
07
1=
0+
b1101 !
b1101 *
1C
0D
0"
06
1<
0?
1B
0E
0/
05
0;
0A
1.
b0 $
b0 )
b1101 #
b1101 (
b1101 &
b0 '
#1045000
17
b1110 !
b1110 *
01
1-
00
13
1/
b1 $
b1 )
b1 '
#1050000
0"
1C
0D
0+
1=
0>
0,
11
0-
b1111 !
b1111 *
17
08
10
03
16
0/
15
b10 $
b10 )
b10 '
#1055000
1"
0C
1D
1+
0=
1>
1,
07
18
b0 !
b0 *
01
1-
00
13
1/
b11 $
b11 )
b11 '
#1060000
0,
11
0-
07
08
b1 !
b1 *
0=
0>
10
03
06
0<
1?
0/
05
1;
b100 $
b100 )
b100 '
#1065000
17
b10 !
b10 *
01
1-
00
13
1/
b101 $
b101 )
b101 '
#1070000
0=
0,
11
0-
b11 !
b11 *
17
08
10
03
16
0/
15
b110 $
b110 )
b110 '
#1075000
1=
1,
07
18
b100 !
b100 *
01
1-
00
13
1/
b111 $
b111 )
b111 '
#1080000
0,
11
0-
07
08
1=
0>
0+
b101 !
b101 *
0C
0D
10
03
06
1<
0?
0B
1E
0/
05
0;
1A
b1000 $
b1000 )
b1000 '
#1085000
17
b110 !
b110 *
01
1-
00
13
1/
b1001 $
b1001 )
b1001 '
#1090000
0C
0+
1=
0>
0,
11
0-
b111 !
b111 *
17
08
10
03
16
0/
15
b1010 $
b1010 )
b1010 '
#1095000
1C
1+
0=
1>
1,
07
18
b1000 !
b1000 *
01
1-
00
13
1/
b1011 $
b1011 )
b1011 '
#1100000
0,
11
0-
07
08
b1001 !
b1001 *
0=
0>
10
03
06
0<
1?
0/
05
1;
b1100 $
b1100 )
b1100 '
#1105000
17
b1010 !
b1010 *
01
1-
00
13
1/
b1101 $
b1101 )
b1101 '
#1110000
0=
0,
11
0-
b1011 !
b1011 *
17
08
10
03
16
0/
15
b1110 $
b1110 )
b1110 '
#1115000
1=
1,
07
18
b1100 !
b1100 *
01
1-
00
13
1/
b1111 $
b1111 )
b1111 '
#1120000
0,
17
08
1=
0>
0+
b1110 !
b1110 *
1C
0D
0"
0-
1<
0?
1B
0E
03
0/
05
0;
0A
0.
14
b0 $
b0 )
b1110 #
b1110 (
b1110 &
b0 '
#1125000
b1111 !
b1111 *
11
10
1/
b1 $
b1 )
b1 '
#1130000
1"
0C
1D
1+
0=
1>
01
b0 !
b0 *
07
1,
00
06
19
0/
15
b10 $
b10 )
b10 '
#1135000
b1 !
b1 *
11
10
1/
b11 $
b11 )
b11 '
#1140000
01
17
0,
b10 !
b10 *
0=
0>
00
16
09
0<
1?
0/
05
1;
b100 $
b100 )
b100 '
#1145000
b11 !
b11 *
11
10
1/
b101 $
b101 )
b101 '
#1150000
1=
01
b100 !
b100 *
07
1,
00
06
19
0/
15
b110 $
b110 )
b110 '
#1155000
b101 !
b101 *
11
10
1/
b111 $
b111 )
b111 '
#1160000
01
17
0,
1=
0>
0+
b110 !
b110 *
0C
0D
00
16
09
1<
0?
0B
1E
0/
05
0;
1A
b1000 $
b1000 )
b1000 '
#1165000
b111 !
b111 *
11
10
1/
b1001 $
b1001 )
b1001 '
#1170000
1C
1+
0=
1>
01
b1000 !
b1000 *
07
1,
00
06
19
0/
15
b1010 $
b1010 )
b1010 '
#1175000
b1001 !
b1001 *
11
10
1/
b1011 $
b1011 )
b1011 '
#1180000
01
17
0,
b1010 !
b1010 *
0=
0>
00
16
09
0<
1?
0/
05
1;
b1100 $
b1100 )
b1100 '
#1185000
b1011 !
b1011 *
11
10
1/
b1101 $
b1101 )
b1101 '
#1190000
1=
01
b1100 !
b1100 *
07
1,
00
06
19
0/
15
b1110 $
b1110 )
b1110 '
#1195000
b1101 !
b1101 *
11
10
1/
b1111 $
b1111 )
b1111 '
